9 21 6
480   2   3   0   0   120
480   2   3   0   0	  120
480   2   2   0   0   100
480   2   2   0   0   100
480   2   2   0   0   100
480   2   2   0   0   100
720   8   8   0   0   200
480   1   0   1   0	  100
480   2   0   2   0   150
  1   -20.384197  -43.503153
  2   -20.390626  -43.506903
  3   -20.379154  -43.516972
  4   -20.376200  -43.618526
  5   -20.311335  -43.710854
  6   -20.349681  -43.671396
  0   -20.380015  -43.513739  0    0   0   0  0  0    0 1440
  1   -20.384197  -43.503153  10  110  1   1  0  0    0 1440
  2   -20.379154  -43.516972  10  110  1   1  0  0    0 1440
  3   -20.379154  -43.516972  10  110  1   1  0  0    0 1440
  4   -20.384197  -43.503153  10  110  0   1  0  0    0 1440
  5   -20.384197  -43.503153  10  110  0   1  0  0    0 1440
  6   -20.288981  -43.711509  10  110  1   0  1  0    0 1440
  7   -20.390626  -43.506903  10  110  1   1  0  0    0 1440
  8   -20.347133  -43.674243  10  110  0   1  0  0    0 1440
  9   -20.311335  -43.710854  10  110  1   1  0  0    0 1440
 10   -20.390626  -43.506903  10  110  0   1  0  0    0 1440
 11   -20.384197  -43.503153  10  110  0   1  0  0    0 1440
 12   -20.384197  -43.503153  10  110  0   1  0  0    0 1440
 13   -20.390626  -43.506903  10  110  0   1  0  0    0 1440
 14   -20.311335  -43.710854  10  110  0   1  0  0    0 1440
 15   -20.349681  -43.671396  10  110  0   1  0  0    0 1440
 16   -20.390626  -43.506903  10  110  0   1  0  0    0 1440
 17   -20.349681  -43.671396  10  110  0   1  0  0    0 1440
 18   -20.384197  -43.503153  10  110  0   1  0  0    0 1440
 19   -20.349681  -43.671396  10  110  0   1  0  0    0 1440
 20   -20.384197  -43.503153  10  110  0   1  0  0    0 1440
 21   -20.382316  -43.487430  10  110  0   1  0  0    0 1440
 22   -19.958449  -43.912792  10   0  -1  -1  0  0  635  650
 23   -19.923233  -43.956836  10   0  -1  -1  0  0  585  600
 24   -19.923233  -43.956836  10   0  -1  -1  0  0  585  600
 25   -19.923844  -43.926775  10   0   0  -1  0  0  585  600
 26   -19.923844  -43.926775  10   0   0  -1  0  0  485  500
 27   -19.938739  -43.912633  10   0  -1   0 -1  0  335  350
 28   -19.938739  -43.912633  10   0  -1  -1  0  0  197  212
 29   -19.938739  -43.912633  10   0   0  -1  0  0  335  350
 30   -19.938739  -43.912633  10   0  -1  -1  0  0  197  212
 31   -19.922139  -43.925310  10   0   0  -1  0  0  385  400
 32   -20.250926  -43.806881  10   0   0  -1  0  0  360  375
 33   -20.250926  -43.806881  10   0   0  -1  0  0  410  425
 34   -20.250926  -43.806881  10   0   0  -1  0  0  360  375
 35   -20.250926  -43.806881  10   0   0  -1  0  0  360  375
 36   -20.250926  -43.806881  10   0   0  -1  0  0  460  475
 37   -20.250926  -43.806881  10   0   0  -1  0  0  360  375
 38   -20.250926  -43.806881  10   0   0  -1  0  0  410  425
 39   -20.250926  -43.806881  10   0   0  -1  0  0  410  425
 40   -20.250926  -43.806881  10   0   0  -1  0  0  410  425
 41   -20.250926  -43.806881  10   0   0  -1  0  0  435  450
 42   -19.922428  -43.917120  10   0   0  -1  0  0  585  600
 43   -20.380015  -43.513739   0   0   0   0  0  0    0 1440
